[{
  "_id": {
    "$oid": "64be83affcb4dc223743c77c"
  },
  "product_name": "Nike Air Force 1",
  "price": 99.99,
  "stock": 10
},{
  "_id": {
    "$oid": "64be83affcb4dc223743c77d"
  },
  "product_name": "Adidas Superstar",
  "price": 89.99,
  "stock": 5
},{
  "_id": {
    "$oid": "64be83affcb4dc223743c77e"
  },
  "product_name": "Puma Suede Classic",
  "price": 74.99,
  "stock": 8
},{
  "_id": {
    "$oid": "64be83affcb4dc223743c77f"
  },
  "product_name": "Reebok Classic Leather",
  "price": 79.99,
  "stock": 12
},{
  "_id": {
    "$oid": "64be83affcb4dc223743c780"
  },
  "product_name": "Converse Chuck Taylor",
  "price": 54.99,
  "stock": 3
},{
  "_id": {
    "$oid": "64be83affcb4dc223743c781"
  },
  "product_name": "Vans Old Skool",
  "price": 64.99,
  "stock": 9
},{
  "_id": {
    "$oid": "64be83affcb4dc223743c782"
  },
  "product_name": "New Balance 574",
  "price": 84.99,
  "stock": 7
},{
  "_id": {
    "$oid": "64be83affcb4dc223743c783"
  },
  "product_name": "Asics Gel-Lyte III",
  "price": 119.99,
  "stock": 4
},{
  "_id": {
    "$oid": "64be83affcb4dc223743c784"
  },
  "product_name": "Saucony Jazz Original",
  "price": 74.99,
  "stock": 2
},{
  "_id": {
    "$oid": "64be83affcb4dc223743c785"
  },
  "product_name": "Brooks Ghost 13",
  "price": 129.99,
  "stock": 15
}]